# Blender v2.76 (sub 0) OBJ File: ''
# www.blender.org
mtllib human_soldier.mtl
o Cylinder
v 0.000000 0.000000 -0.750000
v 0.000000 3.198061 -0.282370
v 0.146318 0.000000 -0.735589
v 0.055088 3.198061 -0.276944
v 0.287013 0.000000 -0.692910
v 0.108058 3.198061 -0.260876
v 0.416678 0.000000 -0.623602
v 0.156876 3.198061 -0.234782
v 0.530330 0.000000 -0.530330
v 0.199666 3.198061 -0.199666
v 0.623602 0.000000 -0.416678
v 0.234782 3.198061 -0.156876
v 0.692910 0.000000 -0.287013
v 0.260876 3.198061 -0.108058
v 0.735589 0.000000 -0.146318
v 0.276944 3.198061 -0.055088
v 0.750000 0.000000 -0.000000
v 0.282370 3.198061 -0.000000
v 0.735589 0.000000 0.146318
v 0.276944 3.198061 0.055087
v 0.692910 0.000000 0.287012
v 0.260876 3.198061 0.108058
v 0.623602 0.000000 0.416678
v 0.234782 3.198061 0.156876
v 0.530330 0.000000 0.530330
v 0.199666 3.198061 0.199665
v 0.416678 0.000000 0.623602
v 0.156876 3.198061 0.234782
v 0.287012 0.000000 0.692910
v 0.108058 3.198061 0.260876
v 0.146318 0.000000 0.735589
v 0.055088 3.198061 0.276944
v -0.000000 0.000000 0.750000
v -0.000000 3.198061 0.282370
v -0.146318 0.000000 0.735589
v -0.055088 3.198061 0.276944
v -0.287013 0.000000 0.692909
v -0.108058 3.198061 0.260875
v -0.416678 0.000000 0.623602
v -0.156876 3.198061 0.234782
v -0.530330 0.000000 0.530330
v -0.199666 3.198061 0.199665
v -0.623603 0.000000 0.416677
v -0.234782 3.198061 0.156876
v -0.692910 0.000000 0.287012
v -0.260876 3.198061 0.108058
v -0.735589 0.000000 0.146317
v -0.276944 3.198061 0.055087
v -0.750000 0.000000 -0.000001
v -0.282370 3.198061 -0.000000
v -0.735589 0.000000 -0.146319
v -0.276944 3.198061 -0.055088
v -0.692909 0.000000 -0.287013
v -0.260875 3.198061 -0.108059
v -0.623602 0.000000 -0.416678
v -0.234782 3.198061 -0.156877
v -0.530329 0.000000 -0.530331
v -0.199665 3.198061 -0.199666
v -0.416677 0.000000 -0.623603
v -0.156876 3.198061 -0.234782
v -0.287012 0.000000 -0.692910
v -0.108058 3.198061 -0.260876
v -0.146317 0.000000 -0.735589
v -0.055087 3.198061 -0.276944
v 0.000000 2.217868 -0.504997
v 0.000000 2.627981 -0.605689
v 0.118164 2.627981 -0.594051
v 0.098520 2.217868 -0.495294
v 0.231787 2.627981 -0.559583
v 0.193254 2.217868 -0.466557
v 0.336503 2.627981 -0.503612
v 0.280561 2.217868 -0.419890
v 0.428287 2.627981 -0.428287
v 0.357087 2.217868 -0.357087
v 0.503612 2.627981 -0.336503
v 0.419890 2.217868 -0.280561
v 0.559583 2.627981 -0.231787
v 0.466557 2.217868 -0.193254
v 0.594051 2.627981 -0.118164
v 0.495294 2.217868 -0.098520
v 0.605689 2.627981 -0.000000
v 0.504997 2.217868 -0.000000
v 0.594051 2.627981 0.118164
v 0.495294 2.217868 0.098520
v 0.559583 2.627981 0.231787
v 0.466557 2.217868 0.193254
v 0.503612 2.627981 0.336502
v 0.419890 2.217868 0.280561
v 0.428287 2.627981 0.428287
v 0.357087 2.217868 0.357087
v 0.336503 2.627981 0.503612
v 0.280561 2.217868 0.419890
v 0.231787 2.627981 0.559583
v 0.193254 2.217868 0.466557
v 0.118164 2.627981 0.594051
v 0.098520 2.217868 0.495294
v -0.000000 2.627981 0.605689
v -0.000000 2.217868 0.504997
v -0.118164 2.627981 0.594050
v -0.098520 2.217868 0.495294
v -0.231787 2.627981 0.559583
v -0.193254 2.217868 0.466556
v -0.336503 2.627981 0.503612
v -0.280562 2.217868 0.419890
v -0.428287 2.627981 0.428286
v -0.357087 2.217868 0.357087
v -0.503612 2.627981 0.336502
v -0.419890 2.217868 0.280561
v -0.559584 2.627981 0.231787
v -0.466557 2.217868 0.193254
v -0.594051 2.627981 0.118163
v -0.495294 2.217868 0.098520
v -0.605689 2.627981 -0.000001
v -0.504997 2.217868 -0.000001
v -0.594050 2.627981 -0.118165
v -0.495294 2.217868 -0.098521
v -0.559583 2.627981 -0.231788
v -0.466556 2.217868 -0.193255
v -0.503611 2.627981 -0.336503
v -0.419889 2.217868 -0.280562
v -0.428286 2.627981 -0.428287
v -0.357086 2.217868 -0.357087
v -0.336502 2.627981 -0.503612
v -0.280561 2.217868 -0.419890
v -0.231786 2.627981 -0.559584
v -0.193253 2.217868 -0.466557
v -0.118163 2.627981 -0.594051
v -0.098519 2.217868 -0.495294
v 0.000000 2.217868 -0.326686
v 0.000000 2.496649 -0.326686
v 0.063733 2.496649 -0.320409
v 0.063733 2.217868 -0.320409
v 0.125017 2.496649 -0.301818
v 0.125017 2.217868 -0.301818
v 0.181497 2.496649 -0.271630
v 0.181497 2.217868 -0.271630
v 0.231002 2.496649 -0.231002
v 0.231002 2.217868 -0.231002
v 0.271629 2.496649 -0.181497
v 0.271629 2.217868 -0.181497
v 0.301818 2.496649 -0.125017
v 0.301818 2.217868 -0.125017
v 0.320409 2.496649 -0.063733
v 0.320409 2.217868 -0.063733
v 0.326686 2.496649 -0.000000
v 0.326686 2.217868 -0.000000
v 0.320409 2.496649 0.063733
v 0.320409 2.217868 0.063733
v 0.301818 2.496649 0.125017
v 0.301818 2.217868 0.125017
v 0.271629 2.496649 0.181497
v 0.271629 2.217868 0.181497
v 0.231002 2.496649 0.231002
v 0.231002 2.217868 0.231002
v 0.181497 2.496649 0.271629
v 0.181497 2.217868 0.271629
v 0.125017 2.496649 0.301818
v 0.125017 2.217868 0.301818
v 0.063733 2.496649 0.320409
v 0.063733 2.217868 0.320409
v -0.000000 2.496649 0.326686
v -0.000000 2.217868 0.326686
v -0.063733 2.496649 0.320408
v -0.063733 2.217868 0.320408
v -0.125017 2.496649 0.301818
v -0.125017 2.217868 0.301818
v -0.181497 2.496649 0.271629
v -0.181497 2.217868 0.271629
v -0.231002 2.496649 0.231001
v -0.231002 2.217868 0.231001
v -0.271629 2.496649 0.181497
v -0.271629 2.217868 0.181497
v -0.301818 2.496649 0.125017
v -0.301818 2.217868 0.125017
v -0.320409 2.496649 0.063733
v -0.320409 2.217868 0.063733
v -0.326686 2.496649 -0.000000
v -0.326686 2.217868 -0.000000
v -0.320409 2.496649 -0.063734
v -0.320409 2.217868 -0.063734
v -0.301818 2.496649 -0.125018
v -0.301818 2.217868 -0.125018
v -0.271629 2.496649 -0.181497
v -0.271629 2.217868 -0.181497
v -0.231001 2.496649 -0.231002
v -0.231001 2.217868 -0.231002
v -0.181497 2.496649 -0.271630
v -0.181497 2.217868 -0.271630
v -0.125017 2.496649 -0.301819
v -0.125017 2.217868 -0.301819
v -0.063733 2.496649 -0.320409
v -0.063733 2.217868 -0.320409
v 0.000000 2.976367 -0.589875
v 0.115079 2.976367 -0.578541
v 0.225735 2.976367 -0.544973
v 0.327717 2.976367 -0.490463
v 0.417105 2.976367 -0.417105
v 0.490463 2.976367 -0.327717
v 0.544973 2.976367 -0.225735
v 0.578541 2.976367 -0.115079
v 0.589875 2.976367 -0.000000
v 0.578541 2.976367 0.115079
v 0.544973 2.976367 0.225735
v 0.490463 2.976367 0.327717
v 0.417105 2.976367 0.417105
v 0.327717 2.976367 0.490463
v 0.225735 2.976367 0.544973
v 0.115079 2.976367 0.578541
v -0.000000 2.976367 0.589875
v -0.115079 2.976367 0.578541
v -0.225736 2.976367 0.544973
v -0.327717 2.976367 0.490463
v -0.417105 2.976367 0.417104
v -0.490463 2.976367 0.327717
v -0.544974 2.976367 0.225735
v -0.578541 2.976367 0.115078
v -0.589875 2.976367 -0.000001
v -0.578541 2.976367 -0.115080
v -0.544973 2.976367 -0.225736
v -0.490463 2.976367 -0.327718
v -0.417104 2.976367 -0.417105
v -0.327716 2.976367 -0.490464
v -0.225735 2.976367 -0.544974
v -0.115078 2.976367 -0.578541
v 0.106518 1.779617 -0.535502
v 0.121324 0.422688 -0.609939
v 0.208943 1.779617 -0.504432
v 0.237986 0.422688 -0.574549
v 0.303338 1.779617 -0.453977
v 0.345502 0.422688 -0.517081
v 0.386076 1.779617 -0.386076
v 0.439741 0.422688 -0.439741
v 0.453977 1.779617 -0.303338
v 0.517081 0.422688 -0.345502
v 0.504432 1.779617 -0.208943
v 0.574549 0.422688 -0.237986
v 0.535502 1.779617 -0.106518
v 0.609938 0.422688 -0.121324
v 0.545993 1.779617 -0.000000
v 0.621888 0.422688 -0.000000
v 0.535502 1.779617 0.106518
v 0.609938 0.422688 0.121324
v 0.504432 1.779617 0.208942
v 0.574549 0.422688 0.237986
v 0.453977 1.779617 0.303337
v 0.517081 0.422688 0.345502
v 0.386076 1.779617 0.386075
v 0.439741 0.422688 0.439741
v 0.303338 1.779617 0.453977
v 0.345502 0.422688 0.517081
v 0.208942 1.779617 0.504432
v 0.237986 0.422688 0.574549
v 0.106518 1.779617 0.535502
v 0.121324 0.422688 0.609938
v -0.000000 1.779617 0.545993
v -0.000000 0.422688 0.621888
v -0.106518 1.779617 0.535502
v -0.121325 0.422688 0.609938
v -0.208943 1.779617 0.504432
v -0.237986 0.422688 0.574549
v -0.303338 1.779617 0.453977
v -0.345503 0.422688 0.517081
v -0.386076 1.779617 0.386075
v -0.439741 0.422688 0.439741
v -0.453977 1.779617 0.303337
v -0.517081 0.422688 0.345502
v -0.504432 1.779617 0.208942
v -0.574550 0.422688 0.237986
v -0.535502 1.779617 0.106517
v -0.609939 0.422688 0.121324
v -0.545993 1.779617 -0.000001
v -0.621888 0.422688 -0.000001
v -0.535502 1.779617 -0.106519
v -0.609938 0.422688 -0.121325
v -0.504432 1.779617 -0.208943
v -0.574549 0.422688 -0.237987
v -0.453976 1.779617 -0.303338
v -0.517080 0.422688 -0.345503
v -0.386075 1.779617 -0.386076
v -0.439741 0.422688 -0.439742
v -0.303337 1.779617 -0.453977
v -0.345502 0.422688 -0.517081
v -0.208942 1.779617 -0.504432
v -0.237985 0.422688 -0.574550
v -0.106517 1.779617 -0.535502
v -0.121323 0.422688 -0.609939
v 0.000000 0.422688 -0.621888
v 0.000000 1.779617 -0.545993
vt 0.115065 0.412676
vt 0.139767 0.492814
vt 0.125615 0.498583
vt 0.085501 0.424727
vt 0.112879 0.506958
vt 0.058894 0.442223
vt 0.102047 0.517617
vt 0.036267 0.464491
vt 0.093537 0.530151
vt 0.018489 0.490675
vt 0.087675 0.544079
vt 0.006243 0.519769
vt 0.084686 0.558864
vt 0.000000 0.550655
vt 0.084686 0.573938
vt 0.000000 0.582147
vt 0.087675 0.588723
vt 0.006243 0.613033
vt 0.093537 0.602651
vt 0.018489 0.642127
vt 0.102047 0.615185
vt 0.036267 0.668311
vt 0.112878 0.625844
vt 0.058894 0.690579
vt 0.125615 0.634219
vt 0.085501 0.708075
vt 0.139767 0.639988
vt 0.115065 0.720126
vt 0.154791 0.642929
vt 0.146450 0.726270
vt 0.170109 0.642929
vt 0.178450 0.726270
vt 0.185133 0.639988
vt 0.209835 0.720126
vt 0.199285 0.634220
vt 0.239399 0.708075
vt 0.212022 0.625844
vt 0.266006 0.690579
vt 0.222853 0.615185
vt 0.288633 0.668311
vt 0.231364 0.602651
vt 0.306412 0.642127
vt 0.237226 0.588723
vt 0.318658 0.613033
vt 0.240214 0.573938
vt 0.324900 0.582147
vt 0.240214 0.558864
vt 0.324900 0.550655
vt 0.237226 0.544079
vt 0.318658 0.519769
vt 0.231364 0.530151
vt 0.306412 0.490675
vt 0.222853 0.517617
vt 0.288633 0.464491
vt 0.212022 0.506958
vt 0.266006 0.442223
vt 0.199285 0.498583
vt 0.239399 0.424727
vt 0.185133 0.492814
vt 0.209835 0.412676
vt 0.170109 0.489873
vt 0.178450 0.406532
vt 0.154791 0.489873
vt 0.146450 0.406532
vt 0.304385 0.023134
vt 0.338215 0.045379
vt 0.366985 0.073691
vt 0.389589 0.106983
vt 0.405159 0.143975
vt 0.413096 0.183246
vt 0.413096 0.223286
vt 0.405159 0.262556
vt 0.389589 0.299549
vt 0.366985 0.332841
vt 0.338215 0.361153
vt 0.304386 0.383398
vt 0.266796 0.398721
vt 0.226892 0.406532
vt 0.186205 0.406532
vt 0.146300 0.398721
vt 0.108711 0.383398
vt 0.074881 0.361153
vt 0.046112 0.332841
vt 0.023508 0.299549
vt 0.007938 0.262557
vt 0.000000 0.223286
vt 0.000000 0.183246
vt 0.007938 0.143976
vt 0.023508 0.106983
vt 0.046112 0.073691
vt 0.074881 0.045379
vt 0.108711 0.023134
vt 0.146300 0.007811
vt 0.186205 0.000000
vt 0.226892 0.000000
vt 0.266796 0.007811
vt 0.644822 0.896919
vt 0.638580 0.957311
vt 0.615767 0.955291
vt 0.620157 0.894735
vt 0.125377 1.000000
vt 0.098508 0.994740
vt 0.112832 0.948271
vt 0.130214 0.951674
vt 0.590434 0.954046
vt 0.592768 0.893390
vt 0.073198 0.741847
vt 0.098508 0.731529
vt 0.112832 0.777999
vt 0.096459 0.784673
vt 0.665815 0.899858
vt 0.657997 0.960030
vt 0.658914 0.018683
vt 0.686234 0.036647
vt 0.637253 0.095382
vt 0.622518 0.085693
vt 0.766016 0.895545
vt 0.771363 0.956026
vt 0.748585 0.958396
vt 0.741388 0.898107
vt 0.432081 0.241911
vt 0.419507 0.212037
vt 0.493391 0.189981
vt 0.500173 0.206094
vt 0.793380 0.893780
vt 0.796673 0.954394
vt 0.152773 1.000000
vt 0.147936 0.951674
vt 0.822430 0.892881
vt 0.823542 0.953562
vt 0.050420 0.756825
vt 0.081724 0.794362
vt 0.852050 0.892881
vt 0.850938 0.953562
vt 0.709468 0.059512
vt 0.649785 0.107714
vt 0.881100 0.893780
vt 0.877807 0.954394
vt 0.413097 0.180323
vt 0.489933 0.172875
vt 0.908465 0.895545
vt 0.903117 0.956026
vt 0.179642 0.994740
vt 0.165318 0.948271
vt 0.933092 0.898107
vt 0.925895 0.958396
vt 0.031048 0.775888
vt 0.069192 0.806695
vt 0.768274 0.580367
vt 0.774516 0.640759
vt 0.755099 0.643478
vt 0.747281 0.583307
vt 0.727723 0.086398
vt 0.659631 0.122216
vt 0.792940 0.578183
vt 0.797329 0.638739
vt 0.413096 0.147987
vt 0.489933 0.155435
vt 0.820329 0.576838
vt 0.822662 0.637495
vt 0.204952 0.984423
vt 0.181691 0.941597
vt 0.849390 0.576384
vt 0.849541 0.637075
vt 0.015828 0.798305
vt 0.059346 0.821196
vt 0.879006 0.576838
vt 0.876933 0.637495
vt 0.740297 0.116272
vt 0.666413 0.138329
vt 0.908038 0.578183
vt 0.903786 0.638739
vt 0.419507 0.116273
vt 0.493391 0.138329
vt 0.935372 0.580367
vt 0.929067 0.640759
vt 0.709468 0.268797
vt 0.686234 0.291662
vt 0.637254 0.232927
vt 0.649785 0.220595
vt 0.959956 0.583307
vt 0.951805 0.643478
vt 0.227730 0.969445
vt 0.196427 0.931908
vt 0.477681 0.581556
vt 0.484878 0.641845
vt 0.465506 0.644861
vt 0.456737 0.584817
vt 0.005345 0.823213
vt 0.052564 0.837309
vt 0.502308 0.578994
vt 0.507656 0.639475
vt 0.272806 0.823213
vt 0.278150 0.849655
vt 0.229044 0.854415
vt 0.225586 0.837309
vt 0.529673 0.577229
vt 0.532966 0.637843
vt 0.746707 0.147987
vt 0.669870 0.155434
vt 0.558723 0.576329
vt 0.559835 0.637010
vt 0.432081 0.086399
vt 0.500173 0.122216
vt 0.588343 0.576329
vt 0.587231 0.637010
vt 0.658914 0.309626
vt 0.622518 0.242617
vt 0.617393 0.577229
vt 0.614100 0.637843
vt 0.247102 0.950381
vt 0.208958 0.919575
vt 0.644758 0.578994
vt 0.639410 0.639475
vt 0.000000 0.849655
vt 0.049107 0.854415
vt 0.669385 0.581556
vt 0.662188 0.641845
vt 0.262322 0.798305
vt 0.218804 0.821196
vt 0.690329 0.584817
vt 0.681560 0.644861
vt 0.746707 0.180322
vt 0.669870 0.172875
vt 0.477725 0.896919
vt 0.484030 0.957311
vt 0.461292 0.960030
vt 0.453141 0.899858
vt 0.450335 0.059512
vt 0.510019 0.107715
vt 0.505058 0.894735
vt 0.509311 0.955291
vt 0.628557 0.322001
vt 0.606145 0.249291
vt 0.534091 0.893390
vt 0.536163 0.954046
vt 0.262322 0.927965
vt 0.218804 0.905074
vt 0.563707 0.892935
vt 0.563555 0.953626
vt 0.000000 0.876615
vt 0.049107 0.871855
vt 0.247102 0.775889
vt 0.208958 0.806695
vt 0.860904 0.138757
vt 0.898987 0.138173
vt 0.897659 0.152697
vt 0.859576 0.153281
vt 0.896841 0.168824
vt 0.858758 0.169408
vt 0.862691 0.126396
vt 0.900774 0.125812
vt 0.940419 0.014501
vt 0.902332 0.014501
vt 0.900774 0.000000
vt 0.938861 0.000000
vt 0.941492 0.030614
vt 0.903405 0.030614
vt 0.942039 0.047720
vt 0.903952 0.047720
vt 0.942039 0.065161
vt 0.903952 0.065161
vt 0.941492 0.082266
vt 0.903405 0.082266
vt 0.940419 0.098379
vt 0.902332 0.098379
vt 0.938861 0.112881
vt 0.900774 0.112881
vt 0.860903 0.112867
vt 0.898987 0.113451
vt 0.862691 0.125228
vt 0.859576 0.098343
vt 0.897659 0.098927
vt 0.858758 0.082216
vt 0.896841 0.082800
vt 0.858482 0.065104
vt 0.896565 0.065688
vt 0.858758 0.047665
vt 0.896841 0.048249
vt 0.859576 0.030570
vt 0.897659 0.031154
vt 0.860904 0.014476
vt 0.898987 0.015060
vt 0.862691 0.000000
vt 0.900774 0.000584
vt 0.281328 0.851483
vt 0.319416 0.851483
vt 0.321398 0.863815
vt 0.283311 0.863815
vt 0.279770 0.836981
vt 0.317858 0.836981
vt 0.278697 0.820868
vt 0.316785 0.820868
vt 0.278150 0.803763
vt 0.316238 0.803763
vt 0.278150 0.786322
vt 0.316238 0.786322
vt 0.278697 0.769217
vt 0.316785 0.769217
vt 0.279770 0.753104
vt 0.317858 0.753104
vt 0.281328 0.738602
vt 0.319416 0.738602
vt 0.283311 0.726270
vt 0.321398 0.726270
vt 0.860904 0.237148
vt 0.898987 0.236564
vt 0.900774 0.251040
vt 0.862691 0.251624
vt 0.859575 0.221054
vt 0.897659 0.220470
vt 0.858758 0.203959
vt 0.896841 0.203375
vt 0.858482 0.186520
vt 0.896565 0.185936
vt 0.450336 0.268797
vt 0.510019 0.220595
vt 0.628557 0.006308
vt 0.606145 0.079018
vt 0.125377 0.726270
vt 0.130214 0.774596
vt 0.073198 0.984423
vt 0.096459 0.941597
vt 0.473570 0.291662
vt 0.522550 0.232927
vt 0.596330 0.000000
vt 0.588763 0.075616
vt 0.152773 0.726270
vt 0.147936 0.774596
vt 0.050420 0.969445
vt 0.081723 0.931908
vt 0.500890 0.309627
vt 0.537286 0.242617
vt 0.563473 0.000000
vt 0.571041 0.075616
vt 0.179642 0.731530
vt 0.165318 0.777999
vt 0.031048 0.950381
vt 0.069192 0.919575
vt 0.531247 0.322001
vt 0.553659 0.249291
vt 0.531246 0.006308
vt 0.553659 0.079018
vt 0.204952 0.741847
vt 0.181691 0.784673
vt 0.015828 0.927965
vt 0.059346 0.905074
vt 0.278150 0.876615
vt 0.272806 0.903057
vt 0.225586 0.888961
vt 0.229044 0.871855
vt 0.563473 0.328309
vt 0.571041 0.252694
vt 0.500890 0.018683
vt 0.537286 0.085693
vt 0.740297 0.212037
vt 0.727723 0.241911
vt 0.659631 0.206094
vt 0.666413 0.189980
vt 0.227730 0.756825
vt 0.196427 0.794362
vt 0.005345 0.903057
vt 0.052564 0.888961
vt 0.596331 0.328309
vt 0.588763 0.252694
vt 0.473569 0.036648
vt 0.522550 0.095382
vt 0.807085 0.022918
vt 0.855255 0.024912
vt 0.852857 0.051136
vt 0.804622 0.049846
vt 0.851380 0.080256
vt 0.803106 0.079746
vt 0.810398 0.000000
vt 0.858482 0.002592
vt 0.327904 0.843946
vt 0.376112 0.841916
vt 0.378925 0.868100
vt 0.330792 0.870832
vt 0.325915 0.814071
vt 0.374174 0.812821
vt 0.324900 0.782357
vt 0.373187 0.781935
vt 0.324900 0.750021
vt 0.373187 0.750444
vt 0.325915 0.718307
vt 0.374174 0.719557
vt 0.327904 0.688433
vt 0.376112 0.690463
vt 0.330792 0.661547
vt 0.378925 0.664279
vt 0.751197 0.209260
vt 0.799367 0.207266
vt 0.802594 0.229586
vt 0.754511 0.232178
vt 0.748735 0.182333
vt 0.796969 0.181042
vt 0.747219 0.152431
vt 0.795493 0.151921
vt 0.746707 0.120705
vt 0.794994 0.121024
vt 0.747219 0.088374
vt 0.795493 0.089536
vt 0.748735 0.056679
vt 0.796969 0.058669
vt 0.751197 0.026839
vt 0.799367 0.029608
vt 0.754511 0.000000
vt 0.802594 0.003470
vt 0.330792 0.638682
vt 0.378925 0.635950
vt 0.382505 0.658218
vt 0.334468 0.661547
vt 0.327904 0.611796
vt 0.376112 0.609766
vt 0.325915 0.581922
vt 0.374174 0.580671
vt 0.324900 0.550207
vt 0.373187 0.549785
vt 0.324900 0.517872
vt 0.373187 0.518294
vt 0.325915 0.486157
vt 0.374174 0.487407
vt 0.327904 0.456283
vt 0.376112 0.458313
vt 0.330792 0.429397
vt 0.378925 0.432129
vt 0.334468 0.406532
vt 0.382505 0.409861
vt 0.807085 0.205339
vt 0.855255 0.202570
vt 0.858482 0.228708
vt 0.810398 0.232178
vt 0.804622 0.175499
vt 0.852857 0.173509
vt 0.803106 0.143804
vt 0.851380 0.142642
vt 0.802594 0.111472
vt 0.850881 0.111154
vt 0.605232 0.645485
vt 0.595925 0.707748
vt 0.562825 0.707231
vt 0.565313 0.644861
vt 0.529092 0.707748
vt 0.524631 0.645485
vt 0.496024 0.709280
vt 0.484751 0.647332
vt 0.464891 0.711768
vt 0.447204 0.650333
vt 0.436890 0.715116
vt 0.413435 0.654371
vt 0.733970 0.339969
vt 0.706564 0.400301
vt 0.682709 0.396587
vt 0.705200 0.335489
vt 0.432251 0.903440
vt 0.413096 0.719196
vt 0.654658 0.393669
vt 0.671370 0.331970
vt 0.623490 0.391659
vt 0.633781 0.329545
vt 0.590401 0.390634
vt 0.593876 0.328309
vt 0.556665 0.390634
vt 0.553190 0.328309
vt 0.523576 0.391659
vt 0.513285 0.329545
vt 0.492408 0.393669
vt 0.475696 0.331970
vt 0.464357 0.396587
vt 0.441866 0.335489
vt 0.440502 0.400301
vt 0.413096 0.339969
vt 1.000000 0.402644
vt 0.980846 0.586889
vt 0.976206 0.398565
vt 0.999662 0.337819
vt 0.948205 0.395217
vt 0.965892 0.333781
vt 0.917072 0.392729
vt 0.928346 0.330781
vt 0.884004 0.391197
vt 0.888465 0.328933
vt 0.850272 0.390680
vt 0.847784 0.328309
vt 0.817171 0.391197
vt 0.807864 0.328933
vt 0.785975 0.392729
vt 0.770241 0.330781
vt 0.757881 0.395217
vt 0.736360 0.333781
vt 0.997677 0.656520
vt 0.970272 0.716853
vt 0.946416 0.713139
vt 0.968907 0.652041
vt 0.733970 0.398565
vt 0.918365 0.710220
vt 0.935077 0.648521
vt 0.887197 0.708210
vt 0.897488 0.646097
vt 0.854108 0.707185
vt 0.857583 0.644861
vt 0.820372 0.707185
vt 0.816897 0.644861
vt 0.787284 0.708210
vt 0.776992 0.646097
vt 0.756115 0.710220
vt 0.739403 0.648521
vt 0.728064 0.713139
vt 0.705573 0.652041
vt 0.705573 0.654371
vt 0.679127 0.715116
vt 0.655215 0.711768
vt 0.676736 0.650333
vt 0.642855 0.647332
vt 0.627122 0.709280
vn 0.057500 0.809800 -0.583800
vn 0.170300 0.809800 -0.561400
vn 0.276600 0.809800 -0.517400
vn 0.372200 0.809800 -0.453500
vn 0.453500 0.809800 -0.372200
vn 0.517400 0.809800 -0.276600
vn 0.561400 0.809800 -0.170300
vn 0.583800 0.809800 -0.057500
vn 0.583800 0.809800 0.057500
vn 0.561400 0.809800 0.170300
vn 0.517400 0.809800 0.276600
vn 0.453500 0.809800 0.372200
vn 0.372200 0.809800 0.453500
vn 0.276600 0.809800 0.517400
vn 0.170300 0.809800 0.561400
vn 0.057500 0.809800 0.583800
vn -0.057500 0.809800 0.583800
vn -0.170300 0.809800 0.561400
vn -0.276600 0.809800 0.517400
vn -0.372200 0.809800 0.453500
vn -0.453500 0.809800 0.372200
vn -0.517400 0.809800 0.276600
vn -0.561400 0.809800 0.170300
vn -0.583800 0.809800 0.057500
vn -0.583800 0.809800 -0.057500
vn -0.561400 0.809800 -0.170300
vn -0.517400 0.809800 -0.276600
vn -0.453500 0.809800 -0.372200
vn -0.372200 0.809800 -0.453500
vn -0.276600 0.809800 -0.517400
vn 0.000000 1.000000 -0.000000
vn -0.057500 0.809800 -0.583800
vn -0.170300 0.809800 -0.561400
vn 0.000000 -1.000000 0.000000
vn -0.289000 0.092700 -0.952800
vn -0.097600 0.092700 -0.990900
vn -0.469400 0.092700 -0.878100
vn -0.425500 -0.904000 0.041900
vn -0.631700 0.092700 -0.769700
vn 0.377100 -0.904000 0.201600
vn -0.769700 0.092700 -0.631700
vn -0.878100 0.092700 -0.469400
vn -0.952800 0.092700 -0.289000
vn -0.425500 -0.904000 -0.041900
vn -0.990900 0.092700 -0.097600
vn 0.330500 -0.904000 0.271300
vn -0.990900 0.092700 0.097600
vn -0.952800 0.092700 0.289000
vn -0.878100 0.092700 0.469400
vn -0.409200 -0.904000 -0.124100
vn -0.769700 0.092700 0.631700
vn 0.271300 -0.904000 0.330500
vn -0.631700 0.092700 0.769700
vn -0.469400 0.092700 0.878100
vn -0.289000 0.092700 0.952800
vn -0.377100 -0.904000 -0.201600
vn -0.097600 0.092700 0.990900
vn 0.201600 -0.904000 0.377100
vn 0.097600 0.092700 0.990900
vn 0.041900 -0.904000 -0.425500
vn 0.289000 0.092700 0.952800
vn 0.469400 0.092700 0.878100
vn 0.631700 0.092700 0.769700
vn 0.769700 0.092700 0.631700
vn -0.330500 -0.904000 -0.271300
vn 0.878100 0.092700 0.469400
vn 0.124100 -0.904000 0.409200
vn 0.952800 0.092700 0.289000
vn 0.124100 -0.904000 -0.409200
vn 0.990900 0.092700 0.097600
vn 0.990900 0.092700 -0.097600
vn 0.952800 0.092700 -0.289000
vn 0.878100 0.092700 -0.469400
vn -0.271300 -0.904000 -0.330500
vn 0.769700 0.092700 -0.631700
vn 0.041900 -0.904000 0.425500
vn 0.631700 0.092700 -0.769700
vn 0.201600 -0.904000 -0.377100
vn 0.469400 0.092700 -0.878100
vn 0.289000 0.092700 -0.952800
vn 0.097600 0.092700 -0.990900
vn -0.290300 0.000000 -0.956900
vn -0.098000 0.000000 -0.995200
vn -0.471400 0.000000 -0.881900
vn -0.634400 0.000000 -0.773000
vn -0.773000 0.000000 -0.634400
vn -0.881900 0.000000 -0.471400
vn -0.956900 0.000000 -0.290300
vn -0.995200 0.000000 -0.098000
vn -0.995200 0.000000 0.098000
vn -0.956900 0.000000 0.290300
vn -0.881900 0.000000 0.471400
vn -0.773000 0.000000 0.634400
vn -0.634400 0.000000 0.773000
vn -0.471400 0.000000 0.881900
vn -0.290300 0.000000 0.956900
vn -0.098000 0.000000 0.995200
vn 0.098000 0.000000 0.995200
vn 0.290300 0.000000 0.956900
vn 0.471400 0.000000 0.881900
vn 0.634400 0.000000 0.773000
vn 0.773000 0.000000 0.634400
vn 0.881900 0.000000 0.471400
vn 0.956900 0.000000 0.290300
vn 0.995200 0.000000 0.098000
vn 0.995200 0.000000 -0.098000
vn 0.956900 0.000000 -0.290300
vn 0.881900 0.000000 -0.471400
vn 0.773000 0.000000 -0.634400
vn 0.634400 0.000000 -0.773000
vn 0.471400 0.000000 -0.881900
vn 0.290300 0.000000 -0.956900
vn 0.098000 0.000000 -0.995200
vn 0.409200 -0.904000 0.124100
vn -0.409200 -0.904000 0.124100
vn 0.425500 -0.904000 0.041900
vn -0.377100 -0.904000 0.201600
vn 0.425500 -0.904000 -0.041900
vn -0.330500 -0.904000 0.271300
vn 0.409200 -0.904000 -0.124100
vn -0.271300 -0.904000 0.330500
vn 0.377100 -0.904000 -0.201600
vn -0.201600 -0.904000 0.377100
vn -0.124100 -0.904000 -0.409200
vn 0.330500 -0.904000 -0.271300
vn -0.124100 -0.904000 0.409200
vn -0.041900 -0.904000 -0.425500
vn 0.271300 -0.904000 -0.330500
vn -0.041900 -0.904000 0.425500
vn -0.201600 -0.904000 -0.377100
vn -0.290000 0.045100 -0.956000
vn -0.097900 0.045100 -0.994200
vn -0.470900 0.045100 -0.881000
vn -0.633700 0.045100 -0.772200
vn -0.772200 0.045100 -0.633700
vn -0.881000 0.045100 -0.470900
vn -0.956000 0.045100 -0.290000
vn -0.994200 0.045100 -0.097900
vn -0.994200 0.045100 0.097900
vn -0.956000 0.045100 0.290000
vn -0.881000 0.045100 0.470900
vn -0.772200 0.045100 0.633700
vn -0.633700 0.045100 0.772200
vn -0.470900 0.045100 0.881000
vn -0.290000 0.045100 0.956000
vn -0.097900 0.045100 0.994200
vn 0.097900 0.045100 0.994200
vn 0.290000 0.045100 0.956000
vn 0.470900 0.045100 0.881000
vn 0.633700 0.045100 0.772200
vn 0.772200 0.045100 0.633700
vn 0.881000 0.045100 0.470900
vn 0.956000 0.045100 0.290000
vn 0.994200 0.045100 0.097900
vn 0.994200 0.045100 -0.097900
vn 0.956000 0.045100 -0.290000
vn 0.881000 0.045100 -0.470900
vn 0.772200 0.045100 -0.633700
vn 0.633700 0.045100 -0.772200
vn 0.470900 0.045100 -0.881000
vn 0.290000 0.045100 -0.956000
vn 0.097900 0.045100 -0.994200
vn 0.093800 0.288800 -0.952800
vn 0.097900 0.055600 -0.993600
vn 0.277900 0.288800 -0.916200
vn 0.289800 0.055600 -0.955500
vn 0.451300 0.288800 -0.844300
vn 0.470700 0.055600 -0.880600
vn 0.607400 0.288800 -0.740100
vn 0.633400 0.055600 -0.771800
vn 0.740100 0.288800 -0.607400
vn 0.771800 0.055600 -0.633400
vn 0.844300 0.288800 -0.451300
vn 0.880600 0.055600 -0.470700
vn 0.916200 0.288800 -0.277900
vn 0.955500 0.055600 -0.289800
vn 0.952800 0.288800 -0.093800
vn 0.993600 0.055600 -0.097900
vn 0.952800 0.288800 0.093800
vn 0.993600 0.055600 0.097900
vn 0.916200 0.288800 0.277900
vn 0.955500 0.055600 0.289800
vn 0.844300 0.288800 0.451300
vn 0.880600 0.055600 0.470700
vn 0.740100 0.288800 0.607400
vn 0.771800 0.055600 0.633400
vn 0.607400 0.288800 0.740100
vn 0.633400 0.055600 0.771800
vn 0.451300 0.288800 0.844300
vn 0.470700 0.055600 0.880600
vn 0.277900 0.288800 0.916200
vn 0.289800 0.055600 0.955500
vn 0.093800 0.288800 0.952800
vn 0.097900 0.055600 0.993600
vn -0.093800 0.288800 0.952800
vn -0.097900 0.055600 0.993600
vn -0.277900 0.288800 0.916200
vn -0.289800 0.055600 0.955500
vn -0.451300 0.288800 0.844300
vn -0.470700 0.055600 0.880600
vn -0.607400 0.288800 0.740100
vn -0.633400 0.055600 0.771800
vn -0.740100 0.288800 0.607400
vn -0.771800 0.055600 0.633400
vn -0.844300 0.288800 0.451300
vn -0.880600 0.055600 0.470700
vn -0.916200 0.288800 0.277900
vn -0.955500 0.055600 0.289800
vn -0.952800 0.288800 0.093800
vn -0.993600 0.055600 0.097900
vn -0.952800 0.288800 -0.093800
vn -0.993600 0.055600 -0.097900
vn -0.916200 0.288800 -0.277900
vn -0.955500 0.055600 -0.289800
vn -0.844300 0.288800 -0.451300
vn -0.880600 0.055600 -0.470700
vn -0.740100 0.288800 -0.607400
vn -0.771800 0.055600 -0.633400
vn -0.607400 0.288800 -0.740100
vn -0.633400 0.055600 -0.771800
vn -0.451300 0.288800 -0.844300
vn -0.470700 0.055600 -0.880600
vn -0.093800 0.288800 -0.952800
vn -0.097900 0.055600 -0.993600
vn -0.277900 0.288800 -0.916200
vn -0.289800 0.055600 -0.955500
usemtl Material.001
s off
f 193/1/1 2/2/1 4/3/1 194/4/1
f 194/4/2 4/3/2 6/5/2 195/6/2
f 195/6/3 6/5/3 8/7/3 196/8/3
f 196/8/4 8/7/4 10/9/4 197/10/4
f 197/10/5 10/9/5 12/11/5 198/12/5
f 198/12/6 12/11/6 14/13/6 199/14/6
f 199/14/7 14/13/7 16/15/7 200/16/7
f 200/16/8 16/15/8 18/17/8 201/18/8
f 201/18/9 18/17/9 20/19/9 202/20/9
f 202/20/10 20/19/10 22/21/10 203/22/10
f 203/22/11 22/21/11 24/23/11 204/24/11
f 204/24/12 24/23/12 26/25/12 205/26/12
f 205/26/13 26/25/13 28/27/13 206/28/13
f 206/28/14 28/27/14 30/29/14 207/30/14
f 207/30/15 30/29/15 32/31/15 208/32/15
f 208/32/16 32/31/16 34/33/16 209/34/16
f 209/34/17 34/33/17 36/35/17 210/36/17
f 210/36/18 36/35/18 38/37/18 211/38/18
f 211/38/19 38/37/19 40/39/19 212/40/19
f 212/40/20 40/39/20 42/41/20 213/42/20
f 213/42/21 42/41/21 44/43/21 214/44/21
f 214/44/22 44/43/22 46/45/22 215/46/22
f 215/46/23 46/45/23 48/47/23 216/48/23
f 216/48/24 48/47/24 50/49/24 217/50/24
f 217/50/25 50/49/25 52/51/25 218/52/25
f 218/52/26 52/51/26 54/53/26 219/54/26
f 219/54/27 54/53/27 56/55/27 220/56/27
f 220/56/28 56/55/28 58/57/28 221/58/28
f 221/58/29 58/57/29 60/59/29 222/60/29
f 222/60/30 60/59/30 62/61/30 223/62/30
f 4/3/31 2/2/31 64/63/31 62/61/31 60/59/31 58/57/31 56/55/31 54/53/31 52/51/31 50/49/31 48/47/31 46/45/31 44/43/31 42/41/31 40/39/31 38/37/31 36/35/31 34/33/31 32/31/31 30/29/31 28/27/31 26/25/31 24/23/31 22/21/31 20/19/31 18/17/31 16/15/31 14/13/31 12/11/31 10/9/31 8/7/31 6/5/31
f 224/64/32 64/63/32 2/2/32 193/1/32
f 223/62/33 62/61/33 64/63/33 224/64/33
f 1/65/34 3/66/34 5/67/34 7/68/34 9/69/34 11/70/34 13/71/34 15/72/34 17/73/34 19/74/34 21/75/34 23/76/34 25/77/34 27/78/34 29/79/34 31/80/34 33/81/34 35/82/34 37/83/34 39/84/34 41/85/34 43/86/34 45/87/34 47/88/34 49/89/34 51/90/34 53/91/34 55/92/34 57/93/34 59/94/34 61/95/34 63/96/34
f 283/97/35 126/98/35 128/99/35 285/100/35
f 112/101/31 110/102/31 174/103/31 176/104/31
f 285/100/36 128/99/36 65/105/36 288/106/36
f 86/107/31 84/108/31 148/109/31 150/110/31
f 281/111/37 124/112/37 126/98/37 283/97/37
f 111/113/38 113/114/38 177/115/38 175/116/38
f 279/117/39 122/118/39 124/119/39 281/120/39
f 85/121/40 87/122/40 151/123/40 149/124/40
f 277/125/41 120/126/41 122/118/41 279/117/41
f 114/127/31 112/101/31 176/104/31 178/128/31
f 275/129/42 118/130/42 120/126/42 277/125/42
f 88/131/31 86/107/31 150/110/31 152/132/31
f 273/133/43 116/134/43 118/130/43 275/129/43
f 113/114/44 115/135/44 179/136/44 177/115/44
f 271/137/45 114/138/45 116/134/45 273/133/45
f 87/122/46 89/139/46 153/140/46 151/123/46
f 269/141/47 112/142/47 114/138/47 271/137/47
f 116/143/31 114/127/31 178/128/31 180/144/31
f 267/145/48 110/146/48 112/142/48 269/141/48
f 90/147/31 88/131/31 152/132/31 154/148/31
f 265/149/49 108/150/49 110/151/49 267/152/49
f 115/135/50 117/153/50 181/154/50 179/136/50
f 263/155/51 106/156/51 108/150/51 265/149/51
f 89/139/52 91/157/52 155/158/52 153/140/52
f 261/159/53 104/160/53 106/156/53 263/155/53
f 118/161/31 116/143/31 180/144/31 182/162/31
f 259/163/54 102/164/54 104/160/54 261/159/54
f 92/165/31 90/147/31 154/148/31 156/166/31
f 257/167/55 100/168/55 102/164/55 259/163/55
f 117/153/56 119/169/56 183/170/56 181/154/56
f 255/171/57 98/172/57 100/168/57 257/167/57
f 91/157/58 93/173/58 157/174/58 155/158/58
f 253/175/59 96/176/59 98/172/59 255/171/59
f 66/177/60 67/178/60 131/179/60 130/180/60
f 251/181/61 94/182/61 96/176/61 253/175/61
f 120/183/31 118/161/31 182/162/31 184/184/31
f 249/185/62 92/186/62 94/187/62 251/188/62
f 94/189/31 92/165/31 156/166/31 158/190/31
f 247/191/63 90/192/63 92/186/63 249/185/63
f 68/193/31 65/194/31 129/195/31 132/196/31
f 245/197/64 88/198/64 90/192/64 247/191/64
f 119/169/65 121/199/65 185/200/65 183/170/65
f 243/201/66 86/202/66 88/198/66 245/197/66
f 93/173/67 95/203/67 159/204/67 157/174/67
f 241/205/68 84/206/68 86/202/68 243/201/68
f 67/178/69 69/207/69 133/208/69 131/179/69
f 239/209/70 82/210/70 84/206/70 241/205/70
f 122/211/31 120/183/31 184/184/31 186/212/31
f 237/213/71 80/214/71 82/210/71 239/209/71
f 96/215/31 94/189/31 158/190/31 160/216/31
f 235/217/72 78/218/72 80/214/72 237/213/72
f 70/219/31 68/193/31 132/196/31 134/220/31
f 233/221/73 76/222/73 78/218/73 235/217/73
f 121/199/74 123/223/74 187/224/74 185/200/74
f 231/225/75 74/226/75 76/227/75 233/228/75
f 95/203/76 97/229/76 161/230/76 159/204/76
f 229/231/77 72/232/77 74/226/77 231/225/77
f 69/207/78 71/233/78 135/234/78 133/208/78
f 227/235/79 70/236/79 72/232/79 229/231/79
f 124/237/31 122/211/31 186/212/31 188/238/31
f 225/239/80 68/240/80 70/236/80 227/235/80
f 98/241/31 96/215/31 160/216/31 162/242/31
f 288/106/81 65/105/81 68/240/81 225/239/81
f 72/243/31 70/219/31 134/220/31 136/244/31
f 190/245/82 189/246/82 191/247/82 192/248/82
f 192/248/83 191/247/83 130/249/83 129/250/83
f 188/251/84 187/252/84 189/246/84 190/245/84
f 186/253/85 185/254/85 187/255/85 188/256/85
f 184/257/86 183/258/86 185/254/86 186/253/86
f 182/259/87 181/260/87 183/258/87 184/257/87
f 180/261/88 179/262/88 181/260/88 182/259/88
f 178/263/89 177/264/89 179/262/89 180/261/89
f 176/265/90 175/266/90 177/264/90 178/263/90
f 174/267/91 173/268/91 175/266/91 176/265/91
f 172/269/92 171/270/92 173/252/92 174/271/92
f 170/272/93 169/273/93 171/270/93 172/269/93
f 168/274/94 167/275/94 169/273/94 170/272/94
f 166/276/95 165/277/95 167/275/95 168/274/95
f 164/278/96 163/279/96 165/277/96 166/276/96
f 162/280/97 161/281/97 163/279/97 164/278/97
f 160/282/98 159/283/98 161/281/98 162/280/98
f 158/284/99 157/285/99 159/283/99 160/282/99
f 156/286/100 155/287/100 157/288/100 158/289/100
f 154/290/101 153/291/101 155/287/101 156/286/101
f 152/292/102 151/293/102 153/291/102 154/290/102
f 150/294/103 149/295/103 151/293/103 152/292/103
f 148/296/104 147/297/104 149/295/104 150/294/104
f 146/298/105 145/299/105 147/297/105 148/296/105
f 144/300/106 143/301/106 145/299/106 146/298/106
f 142/302/107 141/303/107 143/301/107 144/300/107
f 140/304/108 139/305/108 141/303/108 142/302/108
f 138/306/109 137/307/109 139/308/109 140/309/109
f 136/310/110 135/311/110 137/307/110 138/306/110
f 134/312/111 133/313/111 135/311/111 136/310/111
f 132/314/112 131/315/112 133/313/112 134/312/112
f 129/250/113 130/249/113 131/315/113 132/314/113
f 83/316/114 85/121/114 149/124/114 147/317/114
f 109/318/115 111/113/115 175/116/115 173/319/115
f 84/108/31 82/320/31 146/321/31 148/109/31
f 110/102/31 108/322/31 172/323/31 174/103/31
f 81/324/116 83/316/116 147/317/116 145/325/116
f 107/326/117 109/318/117 173/319/117 171/327/117
f 82/320/31 80/328/31 144/329/31 146/321/31
f 108/322/31 106/330/31 170/331/31 172/323/31
f 79/332/118 81/324/118 145/325/118 143/333/118
f 105/334/119 107/326/119 171/327/119 169/335/119
f 80/328/31 78/336/31 142/337/31 144/329/31
f 106/330/31 104/338/31 168/339/31 170/331/31
f 77/340/120 79/332/120 143/333/120 141/341/120
f 103/342/121 105/334/121 169/335/121 167/343/121
f 78/336/31 76/344/31 140/345/31 142/337/31
f 104/338/31 102/346/31 166/347/31 168/339/31
f 128/348/31 126/349/31 190/350/31 192/351/31
f 75/352/122 77/340/122 141/341/122 139/353/122
f 101/354/123 103/342/123 167/343/123 165/355/123
f 125/356/124 127/357/124 191/358/124 189/359/124
f 76/344/31 74/360/31 138/361/31 140/345/31
f 102/346/31 100/362/31 164/363/31 166/347/31
f 65/194/31 128/348/31 192/351/31 129/195/31
f 73/364/125 75/352/125 139/353/125 137/365/125
f 99/366/126 101/354/126 165/355/126 163/367/126
f 127/357/127 66/177/127 130/180/127 191/358/127
f 74/360/31 72/243/31 136/244/31 138/361/31
f 100/362/31 98/241/31 162/242/31 164/363/31
f 126/349/31 124/237/31 188/238/31 190/350/31
f 71/233/128 73/364/128 137/365/128 135/234/128
f 97/229/129 99/366/129 163/367/129 161/230/129
f 123/223/130 125/356/130 189/359/130 187/224/130
f 125/368/131 223/369/131 224/370/131 127/371/131
f 127/371/132 224/370/132 193/372/132 66/373/132
f 123/374/133 222/375/133 223/369/133 125/368/133
f 121/376/134 221/377/134 222/378/134 123/379/134
f 119/380/135 220/381/135 221/377/135 121/376/135
f 117/382/136 219/383/136 220/381/136 119/380/136
f 115/384/137 218/385/137 219/383/137 117/382/137
f 113/386/138 217/387/138 218/385/138 115/384/138
f 111/388/139 216/389/139 217/387/139 113/386/139
f 109/390/140 215/391/140 216/389/140 111/388/140
f 107/392/141 214/393/141 215/394/141 109/395/141
f 105/396/142 213/397/142 214/393/142 107/392/142
f 103/398/143 212/399/143 213/397/143 105/396/143
f 101/400/144 211/401/144 212/399/144 103/398/144
f 99/402/145 210/403/145 211/401/145 101/400/145
f 97/404/146 209/405/146 210/403/146 99/402/146
f 95/406/147 208/407/147 209/405/147 97/404/147
f 93/408/148 207/409/148 208/407/148 95/406/148
f 91/410/149 206/411/149 207/412/149 93/413/149
f 89/414/150 205/415/150 206/411/150 91/410/150
f 87/416/151 204/417/151 205/415/151 89/414/151
f 85/418/152 203/419/152 204/417/152 87/416/152
f 83/420/153 202/421/153 203/419/153 85/418/153
f 81/422/154 201/423/154 202/421/154 83/420/154
f 79/424/155 200/425/155 201/423/155 81/422/155
f 77/426/156 199/427/156 200/425/156 79/424/156
f 75/428/157 198/429/157 199/427/157 77/426/157
f 73/430/158 197/431/158 198/432/158 75/433/158
f 71/434/159 196/435/159 197/431/159 73/430/159
f 69/436/160 195/437/160 196/435/160 71/434/160
f 67/438/161 194/439/161 195/437/161 69/436/161
f 66/373/162 193/372/162 194/439/162 67/438/162
f 1/440/163 287/441/163 226/442/163 3/443/163
f 287/441/164 288/106/164 225/239/164 226/442/164
f 3/443/165 226/442/165 228/444/165 5/445/165
f 226/442/166 225/239/166 227/235/166 228/444/166
f 5/445/167 228/444/167 230/446/167 7/447/167
f 228/444/168 227/235/168 229/231/168 230/446/168
f 7/447/169 230/446/169 232/448/169 9/449/169
f 230/446/170 229/231/170 231/225/170 232/448/170
f 9/449/171 232/448/171 234/450/171 11/451/171
f 232/448/172 231/225/172 233/228/172 234/450/172
f 11/452/173 234/453/173 236/454/173 13/455/173
f 234/450/174 233/228/174 235/456/174 236/457/174
f 13/455/175 236/454/175 238/458/175 15/459/175
f 236/454/176 235/217/176 237/213/176 238/458/176
f 15/459/177 238/458/177 240/460/177 17/461/177
f 238/458/178 237/213/178 239/209/178 240/460/178
f 17/461/179 240/460/179 242/462/179 19/463/179
f 240/460/180 239/209/180 241/205/180 242/462/180
f 19/463/181 242/462/181 244/464/181 21/465/181
f 242/462/182 241/205/182 243/201/182 244/464/182
f 21/465/183 244/464/183 246/466/183 23/467/183
f 244/464/184 243/201/184 245/197/184 246/466/184
f 23/467/185 246/466/185 248/468/185 25/469/185
f 246/466/186 245/197/186 247/191/186 248/468/186
f 25/469/187 248/468/187 250/470/187 27/471/187
f 248/468/188 247/191/188 249/185/188 250/470/188
f 27/471/189 250/470/189 252/472/189 29/473/189
f 250/474/190 249/475/190 251/181/190 252/476/190
f 29/477/191 252/476/191 254/478/191 31/479/191
f 252/476/192 251/181/192 253/175/192 254/478/192
f 31/479/193 254/478/193 256/480/193 33/481/193
f 254/478/194 253/175/194 255/171/194 256/480/194
f 33/481/195 256/480/195 258/482/195 35/483/195
f 256/480/196 255/171/196 257/167/196 258/482/196
f 35/483/197 258/482/197 260/484/197 37/485/197
f 258/482/198 257/167/198 259/163/198 260/484/198
f 37/485/199 260/484/199 262/486/199 39/487/199
f 260/484/200 259/163/200 261/159/200 262/486/200
f 39/487/201 262/486/201 264/488/201 41/489/201
f 262/486/202 261/159/202 263/155/202 264/488/202
f 41/489/203 264/488/203 266/490/203 43/491/203
f 264/488/204 263/155/204 265/149/204 266/490/204
f 43/492/205 266/493/205 268/494/205 45/495/205
f 266/490/206 265/149/206 267/152/206 268/496/206
f 45/495/207 268/494/207 270/497/207 47/498/207
f 268/494/208 267/145/208 269/141/208 270/497/208
f 47/498/209 270/497/209 272/499/209 49/500/209
f 270/497/210 269/141/210 271/137/210 272/499/210
f 49/500/211 272/499/211 274/501/211 51/502/211
f 272/499/212 271/137/212 273/133/212 274/501/212
f 51/502/213 274/501/213 276/503/213 53/504/213
f 274/501/214 273/133/214 275/129/214 276/503/214
f 53/504/215 276/503/215 278/505/215 55/506/215
f 276/503/216 275/129/216 277/125/216 278/505/216
f 55/506/217 278/505/217 280/507/217 57/508/217
f 278/505/218 277/125/218 279/117/218 280/507/218
f 57/508/219 280/507/219 282/509/219 59/510/219
f 280/507/220 279/117/220 281/120/220 282/509/220
f 59/511/221 282/512/221 284/513/221 61/514/221
f 282/512/222 281/111/222 283/97/222 284/513/222
f 63/515/223 286/516/223 287/441/223 1/440/223
f 286/516/224 285/100/224 288/106/224 287/441/224
f 61/514/225 284/513/225 286/516/225 63/515/225
f 284/513/226 283/97/226 285/100/226 286/516/226
